{
  "language": "af",
  "count": 1000,
  "words": [
    "as",
    "Ek",
    "sy",
    "wat",
    "hy",
    "was",
    "vir",
    "op",
    "is",
    "met",
    "hulle",
    "wees",
    "op",
    "een",
    "het",
    "hierdie",
    "uit",
    "deur",
    "warm",
    "woord",
    "maar",
    "wat",
    "sommige",
    "is",
    "dit",
    "jy",
    "of",
    "moes",
    "die",
    "van",
    "te",
    "en",
    "’n",
    "in",
    "ons",
    "kan",
    "uit",
    "ander",
    "was",
    "wat",
    "doen",
    "hul",
    "tyd",
    "indien",
    "sal",
    "hoe",
    "gesê",
    "’n",
    "elke",
    "vertel",
    "doen",
    "stel",
    "drie",
    "wil",
    "lug",
    "goed",
    "ook",
    "speel",
    "klein",
    "einde",
    "sit",
    "huis",
    "lees",
    "hand",
    "hawe",
    "groot",
    "spel",
    "voeg",
    "selfs",
    "land",
    "hier",
    "moet",
    "groot",
    "hoë",
    "sodanige",
    "volg",
    "Wet",
    "Hoekom",
    "vra",
    "mans",
    "verandering",
    "gegaan",
    "lig",
    "soort",
    "af",
    "nodig",
    "huis",
    "prentjie",
    "probeer",
    "ons",
    "weer",
    "dier",
    "punt",
    "ma",
    "wêreld",
    "naby",
    "bou",
    "self",
    "aarde",
    "vader",
    "enige",
    "nuwe",
    "werk",
    "deel",
    "neem",
    "kry",
    "plek",
    "gemaak",
    "lewe",
    "waar",
    "na",
    "terug",
    "bietjie",
    "slegs",
    "ronde",
    "man",
    "jaar",
    "gekom",
    "show",
    "elke",
    "goeie",
    "my",
    "gee",
    "ons",
    "onder",
    "naam",
    "baie",
    "deur",
    "net",
    "vorm",
    "vonnis",
    "groot",
    "dink",
    "sê",
    "help",
    "lae",
    "lyn",
    "verskil",
    "beurt",
    "oorsaak",
    "veel",
    "beteken",
    "voor",
    "skuif",
    "reg",
    "seuntjie",
    "ou",
    "te",
    "dieselfde",
    "sy",
    "al",
    "daar",
    "wanneer",
    "up",
    "gebruik",
    "jou",
    "manier",
    "oor",
    "baie",
    "dan",
    "hulle",
    "skryf",
    "sou",
    "soos",
    "so",
    "hierdie",
    "haar",
    "lang",
    "maak",
    "ding",
    "sien",
    "hom",
    "twee",
    "het",
    "kyk",
    "meer",
    "dag",
    "kon",
    "gaan",
    "kom",
    "het",
    "aantal",
    "klink",
    "geen",
    "mees",
    "mense",
    "my",
    "oor",
    "weet",
    "water",
    "as",
    "oproep",
    "eerste",
    "wat",
    "mag",
    "af",
    "kant",
    "gewees",
    "nou",
    "vind",
    "hoof",
    "staan",
    "eie",
    "bladsy",
    "behoort",
    "land",
    "gevind",
    "antwoord",
    "skool",
    "groei",
    "studie",
    "steeds",
    "leer",
    "plant",
    "dekking",
    "voedsel",
    "son",
    "vier",
    "tussen",
    "staat",
    "hou",
    "oog",
    "nooit",
    "laaste",
    "laat",
    "gedink",
    "stad",
    "boom",
    "steek",
    "plaas",
    "hard",
    "Begin",
    "mag",
    "storie",
    "saag",
    "ver",
    "see",
    "trek",
    "verlaat",
    "laat",
    "hardloop",
    "doen nie",
    "terwyl",
    "pers",
    "naby",
    "nag",
    "werklike",
    "lewe",
    "paar",
    "noord",
    "boek",
    "voer",
    "het",
    "wetenskap",
    "eet",
    "kamer",
    "vriend",
    "begin",
    "idee",
    "vis",
    "berg",
    "stop",
    "keer",
    "basis",
    "hoor",
    "perd",
    "cut",
    "seker",
    "kyk",
    "kleur",
    "gesig",
    "hout",
    "hoof",
    "oop",
    "lyk",
    "saam",
    "volgende",
    "wit",
    "kinders",
    "begin",
    "het",
    "loop",
    "byvoorbeeld",
    "verlig",
    "papier",
    "groep",
    "altyd",
    "musiek",
    "diegene",
    "beide",
    "merk",
    "dikwels",
    "brief",
    "totdat",
    "myl",
    "rivier",
    "motor",
    "voete",
    "sorg",
    "tweede",
    "genoeg",
    "vlakte",
    "meisie",
    "gewone",
    "jong",
    "gereed",
    "bo",
    "ooit",
    "rooi",
    "lys",
    "alhoewel",
    "voel",
    "Besprekings",
    "voël",
    "gou",
    "liggaam",
    "hond",
    "gesin",
    "direkte",
    "inhou",
    "verlaat",
    "lied",
    "meet",
    "deur",
    "produk",
    "swart",
    "kort",
    "Syfer",
    "klas",
    "wind",
    "vraag",
    "gebeur",
    "volledige",
    "skip",
    "gebied",
    "helfte",
    "rock",
    "orde",
    "vuur",
    "Suid-",
    "probleem",
    "stukkie",
    "vertel",
    "geweet",
    "slaag",
    "sedert",
    "top",
    "geheel",
    "koning",
    "straat",
    "duim",
    "vermeerder",
    "niks",
    "natuurlik",
    "bly",
    "wiel",
    "volle",
    "krag",
    "blou",
    "voorwerp",
    "besluit",
    "oppervlak",
    "diep",
    "maan",
    "eiland",
    "voet",
    "stelsel",
    "besig",
    "toets",
    "rekord",
    "boot",
    "gemeenskaplike",
    "goud",
    "moontlik",
    "vliegtuig",
    "plek",
    "droë",
    "wonder",
    "lag",
    "duisend",
    "gelede",
    "hardloop",
    "kyk",
    "spel",
    "vorm",
    "gelyk",
    "warm",
    "mis",
    "gebring",
    "hitte",
    "sneeu",
    "band",
    "bring",
    "Ja",
    "verre",
    "vul",
    "oos",
    "verf",
    "taal",
    "onder",
    "eenheid",
    "krag",
    "dorp",
    "fyn",
    "sekere",
    "vlieg",
    "val",
    "lei",
    "geroep",
    "donker",
    "masjien",
    "noot",
    "wag",
    "plan",
    "figuur",
    "ster",
    "box",
    "naamwoord",
    "gebied",
    "res",
    "korrekte",
    "staat",
    "pond",
    "gedoen",
    "skoonheid",
    "ry",
    "staan",
    "bevat",
    "front",
    "leer",
    "week",
    "finale",
    "gegee",
    "groen",
    "o",
    "vinnige",
    "ontwikkel",
    "oseaan",
    "warm",
    "gratis",
    "minuut",
    "sterk",
    "spesiale",
    "gedagte",
    "agter",
    "duidelik",
    "stert",
    "produseer",
    "Trouens",
    "ruimte",
    "gehoor",
    "beste",
    "uur",
    "beter",
    "ware",
    "tydens",
    "honderd",
    "vyf",
    "onthou",
    "stap",
    "vroeë",
    "hou",
    "West",
    "grond",
    "belangstelling",
    "bereik",
    "vinnig",
    "werkwoord",
    "sing",
    "luister",
    "ses",
    "tafel",
    "Reis",
    "minder",
    "oggend",
    "tien",
    "eenvoudige",
    "verskeie",
    "vokaal",
    "teenoor",
    "oorlog",
    "lê",
    "teen",
    "patroon",
    "stadig",
    "sentrum",
    "liefde",
    "persoon",
    "geld",
    "dien",
    "verskyn",
    "pad",
    "kaart",
    "reën",
    "reël",
    "regeer",
    "trek",
    "koue",
    "kennisgewing",
    "stem",
    "energie",
    "jag",
    "waarskynlike",
    "bed",
    "broer",
    "eier",
    "rit",
    "sel",
    "glo",
    "miskien",
    "kies",
    "skielike",
    "tel",
    "vierkante",
    "rede",
    "lengte",
    "verteenwoordig",
    "kuns",
    "onderwerp",
    "streek",
    "grootte",
    "wissel",
    "vestig",
    "praat",
    "gewig",
    "algemene",
    "ys",
    "saak",
    "sirkel",
    "paar",
    "sluit",
    "verdeel",
    "lettergreep",
    "gevoel",
    "grand",
    "bal",
    "nog",
    "golf",
    "drop",
    "hart",
    "is",
    "huidige",
    "swaar",
    "dans",
    "enjin",
    "posisie",
    "arm",
    "wye",
    "vaar",
    "materiaal",
    "breuk",
    "bos",
    "sit",
    "ras",
    "venster",
    "winkel",
    "somer",
    "trein",
    "slaap",
    "bewys",
    "eensaam",
    "been",
    "oefening",
    "muur",
    "vangs",
    "berg",
    "wens",
    "lug",
    "direksie",
    "vreugde",
    "winter",
    "Sat",
    "geskryf",
    "wilde",
    "instrument",
    "gehou",
    "glas",
    "gras",
    "koei",
    "werk",
    "rand",
    "teken",
    "besoek",
    "verlede",
    "sagte",
    "pret",
    "helder",
    "gas",
    "weer",
    "maand",
    "miljoen",
    "dra",
    "afwerking",
    "gelukkig",
    "hoop",
    "blom",
    "beklee",
    "vreemde",
    "weg",
    "handel",
    "melodie",
    "reis",
    "kantoor",
    "ontvang",
    "ry",
    "mond",
    "presiese",
    "simbool",
    "sterf",
    "minste",
    "moeilikheid",
    "skree",
    "behalwe",
    "geskryf",
    "saad",
    "toon",
    "sluit",
    "stel",
    "skoon",
    "break",
    "lady",
    "agterplaas",
    "styg",
    "slegte",
    "blow",
    "olie",
    "bloed",
    "raak",
    "gegroei",
    "persent",
    "meng",
    "span",
    "draad",
    "koste",
    "verloor",
    "bruin",
    "dra",
    "tuin",
    "gelyke",
    "gestuur",
    "kies",
    "val",
    "pas",
    "vloei",
    "billike",
    "bank",
    "versamel",
    "red",
    "beheer",
    "desimale",
    "oor",
    "anders",
    "baie",
    "gebreek",
    "geval",
    "middel",
    "dood te maak",
    "seun",
    "meer",
    "oomblik",
    "skaal",
    "hard",
    "die lente",
    "neem",
    "kind",
    "reguit",
    "konsonant",
    "nasie",
    "woordeboek",
    "melk",
    "spoed",
    "metode",
    "orrel",
    "betaal",
    "ouderdom",
    "artikel",
    "rok",
    "wolk",
    "verrassing",
    "stil",
    "klip",
    "klein",
    "klim",
    "Modern",
    "ontwerp",
    "swak",
    "baie",
    "eksperiment",
    "onderkant",
    "sleutel",
    "yster",
    "enkele",
    "stok",
    "plat",
    "twintig",
    "vel",
    "glimlag",
    "toename",
    "gat",
    "spring",
    "baba",
    "agt",
    "dorpie",
    "ontmoet",
    "wortel",
    "koop",
    "verhoog",
    "los",
    "metaal",
    "of",
    "stoot",
    "sewe",
    "paragraaf",
    "derde",
    "sal",
    "gehou",
    "hare",
    "beskryf",
    "kok",
    "vloer",
    "óf",
    "gevolg",
    "brand",
    "Hill",
    "veilig",
    "kat",
    "eeu",
    "oorweeg",
    "tipe",
    "wet",
    "bietjie",
    "kus",
    "afskrif",
    "frase",
    "stil",
    "hoë",
    "sand",
    "grond",
    "roll",
    "temperatuur",
    "vinger",
    "bedryf",
    "waarde",
    "stryd",
    "leuen",
    "klop",
    "opgewonde",
    "natuurlike",
    "view",
    "sin",
    "kapitaal",
    "sal nie",
    "stoel",
    "gevaar",
    "vrugte",
    "ryk",
    "dik",
    "soldaat",
    "proses",
    "bedryf",
    "praktyk",
    "afsonderlike",
    "moeilik",
    "dokter",
    "asseblief",
    "beskerm",
    "middag",
    "oes",
    "moderne",
    "element",
    "getref",
    "student",
    "hoek",
    "partytjie",
    "toevoer",
    "wie se",
    "spoor",
    "ring",
    "karakter",
    "insekte",
    "gevang",
    "tydperk",
    "dui",
    "radio",
    "gepraat",
    "atoom",
    "menslike",
    "geskiedenis",
    "uitwerking",
    "elektriese",
    "verwag",
    "been",
    "spoor",
    "dink",
    "verskaf",
    "saamstem",
    "dus",
    "sagte",
    "vrou",
    "kaptein",
    "raai",
    "nodige",
    "skerp",
    "vleuel",
    "skep",
    "naaste",
    "wash",
    "kolf",
    "eerder",
    "skare",
    "koring",
    "vergelyk",
    "gedig",
    "string",
    "klok",
    "afhang",
    "vleis",
    "vryf",
    "buis",
    "bekende",
    "dollar",
    "stroom",
    "vrees",
    "oë",
    "dun",
    "driehoek",
    "planeet",
    "haastig",
    "hoof",
    "kolonie",
    "klok",
    "myn",
    "tie",
    "betree",
    "groot",
    "vars",
    "soek",
    "stuur",
    "geel",
    "geweer",
    "toelaat",
    "Druk",
    "dood",
    "spot",
    "woestyn",
    "pak",
    "huidige",
    "lift",
    "gestyg",
    "kom",
    "meester",
    "spoor",
    "ouer",
    "strand",
    "afdeling",
    "blad",
    "stof",
    "guns",
    "koppel",
    "post",
    "spandeer",
    "koord",
    "vet",
    "bly",
    "oorspronklike",
    "aandeel",
    "stasie",
    "pa",
    "brood",
    "hef",
    "behoorlike",
    "bar",
    "aanbod",
    "segment",
    "slaaf",
    "eend",
    "direkte",
    "mark",
    "graad",
    "vul",
    "chick",
    "liewe",
    "vyand",
    "antwoord",
    "drink",
    "voorkom",
    "ondersteuning",
    "toespraak",
    "aard",
    "reeks",
    "stoom",
    "beweging",
    "pad",
    "vloeistof",
    "teken",
    "bedoel",
    "kwosiënt",
    "tande",
    "dop",
    "nek",
    "suurstof",
    "suiker",
    "dood",
    "mooi",
    "vaardigheid",
    "vroue",
    "seisoen",
    "oplossing",
    "Magnet",
    "silwer",
    "dankie",
    "tak",
    "wedstryd",
    "agtervoegsel",
    "veral",
    "Fig",
    "bang",
    "groot",
    "suster",
    "staal",
    "bespreek",
    "vorentoe",
    "soortgelyke",
    "lei",
    "ervaring",
    "telling",
    "appel",
    "gekoop",
    "gelei",
    "steek",
    "rok",
    "massa",
    "kaart",
    "groep",
    "tou",
    "strokie",
    "oorwinning",
    "droom",
    "aand",
    "toestand",
    "voer",
    "hulpmiddel",
    "totale",
    "basiese",
    "reuk",
    "vallei",
    "of",
    "dubbel",
    "sitplek",
    "voortgaan",
    "blok",
    "grafiek",
    "hoed",
    "verkoop",
    "sukses",
    "maatskappy",
    "aftrek",
    "gebeurtenis",
    "bepaalde",
    "transaksie",
    "swem",
    "term",
    "teenoorgestelde",
    "vrou",
    "skoen",
    "skouer",
    "verspreiding",
    "reël",
    "kamp",
    "bedink",
    "katoen",
    "Gebore",
    "bepaal",
    "kwart",
    "nege",
    "vragmotor",
    "geraas",
    "vlak",
    "kans",
    "versamel",
    "winkel",
    "rek",
    "gooi",
    "skyn",
    "eiendom",
    "kolom",
    "molekule",
    "kies",
    "verkeerd",
    "grys",
    "herhaling",
    "vereis",
    "breë",
    "voor te berei",
    "sout",
    "neus",
    "meervoud",
    "woede",
    "eis",
    "vasteland"
  ]
}
