{
  "language": "pt",
  "count": 1000,
  "words": [
    "que",
    "não",
    "de",
    "um",
    "para",
    "eu",
    "se",
    "me",
    "uma",
    "está",
    "com",
    "do",
    "por",
    "te",
    "os",
    "bem",
    "em",
    "ele",
    "isso",
    "mas",
    "da",
    "como",
    "no",
    "sim",
    "as",
    "mais",
    "na",
    "meu",
    "você",
    "aqui",
    "muito",
    "foi",
    "estou",
    "vamos",
    "ela",
    "fazer",
    "vai",
    "isto",
    "já",
    "tem",
    "só",
    "minha",
    "nos",
    "ser",
    "tudo",
    "ao",
    "tenho",
    "vou",
    "sei",
    "agora",
    "há",
    "lá",
    "tu",
    "quando",
    "porque",
    "estás",
    "quem",
    "onde",
    "nada",
    "ter",
    "então",
    "dizer",
    "lhe",
    "seu",
    "era",
    "sou",
    "ou",
    "coisa",
    "quero",
    "são",
    "sua",
    "pode",
    "nós",
    "mesmo",
    "ver",
    "disse",
    "eles",
    "bom",
    "estava",
    "esta",
    "todos",
    "mim",
    "posso",
    "dos",
    "lo",
    "estão",
    "temos",
    "nunca",
    "este",
    "casa",
    "até",
    "assim",
    "acho",
    "quer",
    "tens",
    "tempo",
    "ir",
    "falar",
    "quê",
    "ainda",
    "tua",
    "teu",
    "favor",
    "pai",
    "também",
    "obrigado",
    "vez",
    "deus",
    "certo",
    "tão",
    "sobre",
    "melhor",
    "noite",
    "és",
    "dia",
    "estamos",
    "talvez",
    "nem",
    "depois",
    "sempre",
    "sabe",
    "mãe",
    "vida",
    "sem",
    "alguém",
    "olá",
    "anos",
    "sabes",
    "ti",
    "homem",
    "dele",
    "alguma",
    "das",
    "algo",
    "parece",
    "sr",
    "tinha",
    "senhor",
    "boa",
    "vais",
    "coisas",
    "estar",
    "faz",
    "queres",
    "vocês",
    "dois",
    "ficar",
    "pelo",
    "preciso",
    "aí",
    "diz",
    "claro",
    "pessoas",
    "essa",
    "verdade",
    "dar",
    "esse",
    "antes",
    "ninguém",
    "tipo",
    "la",
    "vão",
    "trabalho",
    "oh",
    "grande",
    "comigo",
    "outra",
    "apenas",
    "espera",
    "saber",
    "vá",
    "podes",
    "pouco",
    "dinheiro",
    "qual",
    "qualquer",
    "pois",
    "podemos",
    "fora",
    "pela",
    "merda",
    "deve",
    "daqui",
    "olha",
    "cá",
    "filho",
    "disso",
    "toda",
    "hoje",
    "mulher",
    "meus",
    "todo",
    "nome",
    "seja",
    "num",
    "desculpa",
    "outro",
    "nosso",
    "nossa",
    "sair",
    "queria",
    "sério",
    "dá",
    "mundo",
    "quanto",
    "seus",
    "certeza",
    "mal",
    "dela",
    "têm",
    "amigo",
    "volta",
    "às",
    "carro",
    "três",
    "passa",
    "embora",
    "fez",
    "novo",
    "aconteceu",
    "deixa",
    "problema",
    "menos",
    "vem",
    "nas",
    "lugar",
    "consigo",
    "será",
    "dentro",
    "pensar",
    "ok",
    "vezes",
    "lado",
    "primeiro",
    "contigo",
    "numa",
    "todas",
    "tentar",
    "vi",
    "aos",
    "parte",
    "cara",
    "ei",
    "ali",
    "voltar",
    "algum",
    "hora",
    "porquê",
    "anda",
    "desculpe",
    "vê",
    "ajudar",
    "aquele",
    "obrigada",
    "querida",
    "sinto",
    "pensei",
    "los",
    "homens",
    "duas",
    "dias",
    "sabia",
    "fui",
    "matar",
    "gente",
    "uns",
    "gosto",
    "razão",
    "vos",
    "atrás",
    "deixar",
    "cabeça",
    "podem",
    "amor",
    "fica",
    "achas",
    "somos",
    "pronto",
    "família",
    "horas",
    "entre",
    "ajuda",
    "frente",
    "tal",
    "polícia",
    "ideia",
    "tarde",
    "suas",
    "porta",
    "passar",
    "tenha",
    "amigos",
    "ouvir",
    "precisa",
    "fiz",
    "encontrar",
    "deles",
    "ia",
    "nenhum",
    "momento",
    "devia",
    "acha",
    "aquilo",
    "cidade",
    "cima",
    "minutos",
    "desde",
    "foram",
    "si",
    "pessoa",
    "entrar",
    "pra",
    "diga",
    "morrer",
    "nova",
    "podia",
    "seria",
    "caso",
    "chegar",
    "outros",
    "tanto",
    "morto",
    "levar",
    "amanhã",
    "forma",
    "quase",
    "fosse",
    "medo",
    "lhes",
    "história",
    "conta",
    "óptimo",
    "contra",
    "irmão",
    "sido",
    "minhas",
    "aquela",
    "arma",
    "caminho",
    "morte",
    "sorte",
    "enquanto",
    "vir",
    "cuidado",
    "primeira",
    "cada",
    "deixe",
    "semana",
    "feliz",
    "trabalhar",
    "precisamos",
    "alguns",
    "espero",
    "maneira",
    "tive",
    "olhos",
    "faço",
    "ano",
    "vejo",
    "rapaz",
    "fala",
    "durante",
    "acabou",
    "desta",
    "pessoal",
    "pára",
    "quarto",
    "estes",
    "feito",
    "neste",
    "for",
    "mãos",
    "sangue",
    "fim",
    "acontecer",
    "dr",
    "ouve",
    "faça",
    "estas",
    "adeus",
    "querem",
    "causa",
    "meio",
    "filha",
    "água",
    "juntos",
    "lamento",
    "perto",
    "teus",
    "jogo",
    "cinco",
    "umas",
    "importante",
    "última",
    "logo",
    "manhã",
    "chefe",
    "senhora",
    "acredito",
    "nossos",
    "calma",
    "poder",
    "única",
    "querido",
    "ouvi",
    "deu",
    "terra",
    "disto",
    "guerra",
    "rápido",
    "algumas",
    "realmente",
    "poderia",
    "digo",
    "contar",
    "amo",
    "mão",
    "nisso",
    "baixo",
    "difícil",
    "começar",
    "viu",
    "comer",
    "ah",
    "espere",
    "mesma",
    "deste",
    "problemas",
    "capitão",
    "corpo",
    "dólares",
    "importa",
    "número",
    "usar",
    "disseste",
    "maior",
    "segundo",
    "significa",
    "escola",
    "sabem",
    "parar",
    "dormir",
    "andar",
    "quatro",
    "segurança",
    "coração",
    "raio",
    "havia",
    "sai",
    "teve",
    "buscar",
    "presidente",
    "nenhuma",
    "agente",
    "chega",
    "rapazes",
    "pequeno",
    "idiota",
    "fizeste",
    "tirar",
    "morreu",
    "força",
    "sabemos",
    "ontem",
    "prazer",
    "procura",
    "viver",
    "mau",
    "estado",
    "sentir",
    "meses",
    "chama",
    "festa",
    "mulheres",
    "pedir",
    "conheço",
    "crianças",
    "devo",
    "rapariga",
    "perder",
    "sra",
    "pergunta",
    "marido",
    "eram",
    "fazes",
    "altura",
    "porra",
    "olhe",
    "olhar",
    "velho",
    "muitas",
    "mil",
    "filhos",
    "näo",
    "trás",
    "fazendo",
    "muitos",
    "equipa",
    "pais",
    "telefone",
    "acabar",
    "dê",
    "teria",
    "possível",
    "depressa",
    "elas",
    "venha",
    "esperar",
    "muita",
    "tomar",
    "pena",
    "gosta",
    "armas",
    "nesta",
    "vivo",
    "vindo",
    "tivesse",
    "longe",
    "penso",
    "acordo",
    "demais",
    "vossa",
    "pensa",
    "errado",
    "conseguir",
    "gostaria",
    "estranho",
    "veio",
    "fácil",
    "sente",
    "essas",
    "brincar",
    "licença",
    "suficiente",
    "seis",
    "mudar",
    "passado",
    "estavam",
    "plano",
    "fogo",
    "livro",
    "esses",
    "irmã",
    "dizem",
    "falta",
    "fazem",
    "jantar",
    "rei",
    "devias",
    "matou",
    "cama",
    "leva",
    "nossas",
    "foste",
    "sozinho",
    "adoro",
    "exactamente",
    "paz",
    "tuas",
    "além",
    "pôr",
    "palavra",
    "sala",
    "consegue",
    "pagar",
    "seguir",
    "possa",
    "atenção",
    "fique",
    "passou",
    "comida",
    "ar",
    "culpa",
    "pelos",
    "ficou",
    "ligar",
    "bastante",
    "continua",
    "correr",
    "estavas",
    "precisas",
    "boca",
    "luz",
    "outras",
    "único",
    "menina",
    "deixou",
    "casamento",
    "acreditar",
    "médico",
    "próprio",
    "semanas",
    "chegou",
    "fico",
    "minuto",
    "especial",
    "chamar",
    "lembro",
    "forte",
    "esteja",
    "perguntar",
    "mostrar",
    "filme",
    "sequer",
    "provavelmente",
    "país",
    "cala",
    "houve",
    "pé",
    "partir",
    "fazê",
    "diferente",
    "pior",
    "rua",
    "deveria",
    "próxima",
    "café",
    "direito",
    "existe",
    "boas",
    "resto",
    "quiser",
    "pare",
    "toma",
    "quis",
    "viste",
    "lembra",
    "hospital",
    "estive",
    "arranjar",
    "portanto",
    "continuar",
    "descobrir",
    "conhece",
    "bebé",
    "sam",
    "sexo",
    "manter",
    "visto",
    "las",
    "jogar",
    "vim",
    "encontrei",
    "demasiado",
    "vosso",
    "ai",
    "raios",
    "ponto",
    "sentido",
    "dez",
    "milhões",
    "puta",
    "sinal",
    "aqueles",
    "ganhar",
    "haver",
    "querer",
    "consegues",
    "devem",
    "seguro",
    "criança",
    "último",
    "sistema",
    "gostava",
    "prisão",
    "cão",
    "queremos",
    "linda",
    "esposa",
    "local",
    "peço",
    "música",
    "acontece",
    "sítio",
    "irá",
    "trouxe",
    "esteve",
    "pequena",
    "conhecer",
    "precisar",
    "salvar",
    "oportunidade",
    "fazemos",
    "mr",
    "encontro",
    "capaz",
    "comprar",
    "avião",
    "achei",
    "vês",
    "chão",
    "natal",
    "jesus",
    "mortos",
    "jovem",
    "negócio",
    "banho",
    "beber",
    "grandes",
    "livre",
    "alto",
    "situação",
    "miúdo",
    "sob",
    "connosco",
    "tratar",
    "nao",
    "deves",
    "cedo",
    "veja",
    "apanhar",
    "entra",
    "futuro",
    "próximo",
    "entendo",
    "nave",
    "final",
    "vontade",
    "cabelo",
    "certa",
    "general",
    "perfeito",
    "dou",
    "lembras",
    "respeito",
    "devemos",
    "nisto",
    "lindo",
    "bonito",
    "guarda",
    "ordem",
    "miúda",
    "disseram",
    "preocupes",
    "perguntas",
    "interessa",
    "oi",
    "põe",
    "questão",
    "mensagem",
    "palavras",
    "começou",
    "senhores",
    "falando",
    "gajo",
    "notícias",
    "acabei",
    "estiver",
    "estávamos",
    "louco",
    "tira",
    "vista",
    "campo",
    "linha",
    "tinhas",
    "mesa",
    "finalmente",
    "própria",
    "assassino",
    "droga",
    "fizeram",
    "emprego",
    "amiga",
    "barco",
    "conversa",
    "terá",
    "faria",
    "simples",
    "missão",
    "viagem",
    "tom",
    "ataque",
    "consegui",
    "nessa",
    "gostas",
    "bonita",
    "grupo",
    "real",
    "completamente",
    "doente",
    "bocado",
    "abrir",
    "dessa",
    "ler",
    "tio",
    "pelas",
    "doutor",
    "lista",
    "crime",
    "novamente",
    "procurar",
    "chamada",
    "segunda",
    "acredita",
    "quiseres",
    "daí",
    "normal",
    "relação",
    "modo",
    "resposta",
    "sol",
    "desse",
    "viva",
    "lutar",
    "aonde",
    "tipos",
    "dizes",
    "saia",
    "estúpido",
    "meia",
    "assunto",
    "deixem",
    "melhores",
    "escritório",
    "serviço",
    "facto",
    "dor",
    "casar",
    "david",
    "dito",
    "exército",
    "fundo",
    "fugir",
    "acidente",
    "faças",
    "segundos",
    "nesse",
    "vale",
    "fixe",
    "george",
    "sonho",
    "nele",
    "quantos",
    "escuta",
    "ambos",
    "graças",
    "papá",
    "preso",
    "tinham",
    "professor",
    "trazer",
    "ajudá",
    "dei",
    "pensas",
    "fiquei",
    "sete",
    "esperem",
    "roupa",
    "hotel",
    "verdadeiro",
    "devíamos",
    "fantástico",
    "creio",
    "espaço",
    "idade",
    "bons",
    "tocar",
    "olho",
    "companhia",
    "saiu",
    "conseguiu",
    "jeito",
    "pensava",
    "escolha",
    "levou",
    "iria",
    "mente",
    "estivesse",
    "caixa",
    "ouça",
    "sozinha",
    "tiro",
    "programa",
    "esquerda",
    "breve",
    "parabéns",
    "voz",
    "chave",
    "gostar",
    "engraçado",
    "diabo",
    "costas",
    "informação",
    "olhem",
    "pegar",
    "erro",
    "falou",
    "namorada",
    "fome",
    "cabo",
    "abre",
    "volto",
    "incrível",
    "banco",
    "fazia",
    "estrada",
    "após",
    "posição",
    "excelente",
    "juro",
    "má",
    "parem",
    "morta",
    "loja",
    "coronel",
    "prometo",
    "povo",
    "presente",
    "tempos",
    "fomos",
    "carta",
    "mestre",
    "proteger",
    "explicar",
    "leve",
    "trata",
    "simplesmente",
    "ora",
    "the",
    "governo",
    "mata",
    "cair",
    "centro",
    "prova",
    "senhoras",
    "chamado",
    "céu",
    "mês",
    "aposto",
    "energia",
    "soube",
    "mamã",
    "norte",
    "destino",
    "quente",
    "tradução",
    "feira",
    "conversar",
    "ordens",
    "lembrar",
    "almoço",
    "metade",
    "direita",
    "mandar",
    "papel",
    "miúdos",
    "liga",
    "chamo",
    "pediu",
    "perdi",
    "indo",
    "ouviste",
    "diabos",
    "foda",
    "advogado",
    "tornar",
    "base",
    "conseguimos",
    "imediatamente",
    "lei",
    "através",
    "interessante",
    "planeta",
    "bolas",
    "cheio",
    "voltou",
    "esquece",
    "saiam",
    "james",
    "impossível",
    "tenente",
    "escrever",
    "funciona",
    "bela",
    "entendido",
    "pés",
    "reunião",
    "luta",
    "saída",
    "cena",
    "inferno",
    "percebo",
    "oito",
    "máquina",
    "comandante",
    "câmara",
    "falei",
    "segredo",
    "regras",
    "acerca",
    "odeio",
    "fizemos",
    "bomba",
    "precisam",
    "sargento",
    "passo",
    "trabalha",
    "honra",
    "vidas",
    "digas"
  ]
}
